^C:\USERS\USER\SOURCE\REPOS\MIDDLE\MIDDLE.CPP
C:\USERS\USER\SOURCE\REPOS\MIDDLE\X64\DEBUG\VC143.PDB
C:\USERS\USER\SOURCE\REPOS\MIDDLE\X64\DEBUG\VC143.IDB
C:\USERS\USER\SOURCE\REPOS\MIDDLE\X64\DEBUG\MIDDLE.OBJ
